{
  "name": "Cutiefly",
  "nationalPokedexNumber": 742,
  "primaryType": "bug",
  "secondaryType": "fairy",
  "abilities": [
    "honeygather",
    "shielddust",
    "h:sweetveil"
  ],
  "baseStats": {
    "hp": 40,
    "attack": 45,
    "defence": 40,
    "special_attack": 55,
    "special_defence": 40,
    "speed": 84
  },
  "catchRate": 190,
  "maleRatio": 0.5,
  "shoulderMountable": false,
  "baseExperienceYield": 61,
  "experienceGroup": "medium_fast",
  "eggCycles": 20,
  "eggGroups": [
    "bug",
    "fairy"
  ],
  "moves": [
    "1:absorb",
    "1:fairywind",
    "6:stunspore",
    "12:sweetscent",
    "13:silverwind",
    "18:drainingkiss",
    "24:strugglebug",
    "30:aromatherapy",
    "36:switcheroo",
    "42:dazzlinggleam",
    "48:bugbuzz",
    "54:quiverdance",
    "egg:aromaticmist",
    "egg:batonpass",
    "egg:bestow",
    "egg:moonblast",
    "egg:powder",
    "egg:skillswap",
    "egg:speedswap",
    "egg:stickyweb",
    "tm:acrobatics",
    "tm:aerialace",
    "tm:allyswitch",
    "tm:attract",
    "tm:batonpass",
    "tm:bugbuzz",
    "tm:calmmind",
    "tm:charm",
    "tm:confide",
    "tm:dazzlinggleam",
    "tm:doubleteam",
    "tm:drainingkiss",
    "tm:dreameater",
    "tm:endure",
    "tm:energyball",
    "tm:facade",
    "tm:faketears",
    "tm:frustration",
    "tm:helpinghand",
    "tm:hiddenpower",
    "tm:imprison",
    "tm:infestation",
    "tm:leechlife",
    "tm:lightscreen",
    "tm:magicroom",
    "tm:playrough",
    "tm:protect",
    "tm:psychic",
    "tm:psychup",
    "tm:reflect",
    "tm:rest",
    "tm:return",
    "tm:roost",
    "tm:round",
    "tm:safeguard",
    "tm:skillswap",
    "tm:sleeptalk",
    "tm:snore",
    "tm:speedswap",
    "tm:substitute",
    "tm:sunnyday",
    "tm:swagger",
    "tm:swift",
    "tm:thief",
    "tm:toxic",
    "tm:trick",
    "tm:uturn",
    "tm:wonderroom",
    "tutor:afteryou",
    "tutor:allyswitch",
    "tutor:bugbite",
    "tutor:covet",
    "tutor:defog",
    "tutor:dualwingbeat",
    "tutor:helpinghand",
    "tutor:lastresort",
    "tutor:magicroom",
    "tutor:signalbeam",
    "tutor:skillswap",
    "tutor:snore",
    "tutor:tailwind",
    "tutor:telekinesis",
    "tutor:trick",
    "tutor:wonderroom"
  ],
  "labels": [
    "gen7"
  ],
  "pokedex": [
    "cobblemon.species.cutiefly.desc"
  ],
  "evolutions": [
    {
      "id": "cutiefly_ribombee",
      "variant": "level_up",
      "result": "ribombee",
      "consumeHeldItem": false,
      "learnableMoves": [
        "pollenpuff"
      ],
      "requirements": [
        {
          "variant": "level",
          "minLevel": 25
        }
      ]
    }
  ],
  "baseScale": 1,
  "hitbox": {
    "width": 1,
    "height": 1,
    "fixed": false
  },
  "baseFriendship": 50,
  "evYield": {
    "hp": 0,
    "attack": 0,
    "defence": 0,
    "special_attack": 0,
    "special_defence": 0,
    "speed": 1
  },
  "height": 1,
  "weight": 2,
  "aspects": [],
  "cannotDynamax": false
}