{
  "implemented": true,
  "name": "Primarina",
  "nationalPokedexNumber": 730,
  "primaryType": "water",
  "secondaryType": "fairy",
  "abilities": [
    "torrent",
    "h:liquidvoice"
  ],
  "baseStats": {
    "hp": 80,
    "attack": 74,
    "defence": 74,
    "special_attack": 126,
    "special_defence": 116,
    "speed": 60
  },
  "catchRate": 45,
  "maleRatio": 0.875,
  "shoulderMountable": false,
  "baseExperienceYield": 265,
  "experienceGroup": "medium_slow",
  "eggCycles": 15,
  "eggGroups": [
    "water_1",
    "field"
  ],
  "drops": {
    "amount": "1",
    "entries": [
      {
        "item": "cobblemon:mystic_water",
        "percentage": 20
      }
    ]
  },
  "moves": [
    "1:disarmingvoice",
    "1:growl",
    "1:pound",
    "1:sparklingaria",
    "1:watergun",
    "9:aquajet",
    "12:babydolleyes",
    "15:icywind",
    "20:sing",
    "25:bubblebeam",
    "30:encore",
    "33:doubleslap",
    "37:mistyterrain",
    "44:hypervoice",
    "49:captivate",
    "51:moonblast",
    "58:hydropump",
    "tm:acrobatics",
    "tm:amnesia",
    "tm:attract",
    "tm:blizzard",
    "tm:brine",
    "tm:calmmind",
    "tm:charm",
    "tm:confide",
    "tm:dazzlinggleam",
    "tm:dive",
    "tm:doubleteam",
    "tm:drainingkiss",
    "tm:echoedvoice",
    "tm:encore",
    "tm:endure",
    "tm:energyball",
    "tm:facade",
    "tm:frustration",
    "tm:gigaimpact",
    "tm:hail",
    "tm:helpinghand",
    "tm:hiddenpower",
    "tm:hydropump",
    "tm:hyperbeam",
    "tm:hypervoice",
    "tm:icebeam",
    "tm:icywind",
    "tm:irontail",
    "tm:lightscreen",
    "tm:liquidation",
    "tm:mistyterrain",
    "tm:playrough",
    "tm:protect",
    "tm:psychic",
    "tm:psychup",
    "tm:raindance",
    "tm:reflect",
    "tm:rest",
    "tm:return",
    "tm:round",
    "tm:scald",
    "tm:shadowball",
    "tm:sleeptalk",
    "tm:snore",
    "tm:storedpower",
    "tm:substitute",
    "tm:surf",
    "tm:swagger",
    "tm:toxic",
    "tm:uproar",
    "tm:waterfall",
    "tm:weatherball",
    "tm:whirlpool",
    "tm:wonderroom",
    "tm:workup",
    "tutor:aquatail",
    "tutor:covet",
    "tutor:flipturn",
    "tutor:helpinghand",
    "tutor:hydrocannon",
    "tutor:hypervoice",
    "tutor:icywind",
    "tutor:irontail",
    "tutor:liquidation",
    "tutor:magiccoat",
    "tutor:mistyexplosion",
    "tutor:moonblast",
    "tutor:perishsong",
    "tutor:snore",
    "tutor:tripleaxel",
    "tutor:uproar",
    "tutor:waterpledge",
    "tutor:waterpulse",
    "tutor:wonderroom"
  ],
  "labels": [
    "gen7"
  ],
  "pokedex": [
    "cobblemon.species.primarina.desc"
  ],
  "preEvolution": "brionne",
  "evolutions": [],
  "baseScale": 1,
  "hitbox": {
    "width": 1.7,
    "height": 1.8,
    "fixed": false
  },
  "baseFriendship": 50,
  "evYield": {
    "hp": 0,
    "attack": 0,
    "defence": 0,
    "special_attack": 3,
    "special_defence": 0,
    "speed": 0
  },
  "height": 18,
  "weight": 440,
  "aspects": [],
  "cannotDynamax": false
}